%YAML 1.1
%TAG !u! tag:unity3d.com,2011:
--- !u!1001 &741647483645845153
PrefabInstance:
  m_ObjectHideFlags: 0
  serializedVersion: 2
  m_Modification:
    m_TransformParent: {fileID: 0}
    m_Modifications:
    - target: {fileID: 26379293183723057, guid: 6dc3efec112ab804db34bca440539219,
        type: 3}
      propertyPath: m_LocalPosition.x
      value: -0.62
      objectReference: {fileID: 0}
    - target: {fileID: 26379293183723057, guid: 6dc3efec112ab804db34bca440539219,
        type: 3}
      propertyPath: m_LocalPosition.y
      value: -0.731
      objectReference: {fileID: 0}
    - target: {fileID: 26379293183723057, guid: 6dc3efec112ab804db34bca440539219,
        type: 3}
      propertyPath: m_LocalPosition.z
      value: 0
      objectReference: {fileID: 0}
    - target: {fileID: 26379293183723057, guid: 6dc3efec112ab804db34bca440539219,
        type: 3}
      propertyPath: m_LocalRotation.x
      value: 0
      objectReference: {fileID: 0}
    - target: {fileID: 26379293183723057, guid: 6dc3efec112ab804db34bca440539219,
        type: 3}
      propertyPath: m_LocalRotation.y
      value: 0
      objectReference: {fileID: 0}
    - target: {fileID: 26379293183723057, guid: 6dc3efec112ab804db34bca440539219,
        type: 3}
      propertyPath: m_LocalRotation.z
      value: 0
      objectReference: {fileID: 0}
    - target: {fileID: 26379293183723057, guid: 6dc3efec112ab804db34bca440539219,
        type: 3}
      propertyPath: m_LocalRotation.w
      value: 1
      objectReference: {fileID: 0}
    - target: {fileID: 26379293183723057, guid: 6dc3efec112ab804db34bca440539219,
        type: 3}
      propertyPath: m_RootOrder
      value: 0
      objectReference: {fileID: 0}
    - target: {fileID: 26379293183723057, guid: 6dc3efec112ab804db34bca440539219,
        type: 3}
      propertyPath: m_LocalEulerAnglesHint.x
      value: 0
      objectReference: {fileID: 0}
    - target: {fileID: 26379293183723057, guid: 6dc3efec112ab804db34bca440539219,
        type: 3}
      propertyPath: m_LocalEulerAnglesHint.y
      value: 0
      objectReference: {fileID: 0}
    - target: {fileID: 26379293183723057, guid: 6dc3efec112ab804db34bca440539219,
        type: 3}
      propertyPath: m_LocalEulerAnglesHint.z
      value: 0
      objectReference: {fileID: 0}
    - target: {fileID: 437612647846902109, guid: 6dc3efec112ab804db34bca440539219,
        type: 3}
      propertyPath: m_FlipX
      value: 0
      objectReference: {fileID: 0}
    - target: {fileID: 4147285505502542591, guid: 6dc3efec112ab804db34bca440539219,
        type: 3}
      propertyPath: m_Name
      value: BulletRight Variant
      objectReference: {fileID: 0}
    - target: {fileID: 8137836549210647120, guid: 6dc3efec112ab804db34bca440539219,
        type: 3}
      propertyPath: left
      value: 0
      objectReference: {fileID: 0}
    m_RemovedComponents: []
  m_SourcePrefab: {fileID: 100100000, guid: 6dc3efec112ab804db34bca440539219, type: 3}
