%YAML 1.1
%TAG !u! tag:unity3d.com,2011:
--- !u!74 &7400000
AnimationClip:
  m_ObjectHideFlags: 0
  m_CorrespondingSourceObject: {fileID: 0}
  m_PrefabInstance: {fileID: 0}
  m_PrefabAsset: {fileID: 0}
  m_Name: DogWinDance
  serializedVersion: 6
  m_Legacy: 0
  m_Compressed: 0
  m_UseHighQualityCurve: 1
  m_RotationCurves: []
  m_CompressedRotationCurves: []
  m_EulerCurves: []
  m_PositionCurves: []
  m_ScaleCurves: []
  m_FloatCurves: []
  m_PPtrCurves:
  - curve:
    - time: 0
      value: {fileID: 3405330304589781799, guid: 7a33500a4ca86ab4093d8014c0c84b63,
        type: 3}
    - time: 0.083333336
      value: {fileID: -5065931624321574923, guid: 7a33500a4ca86ab4093d8014c0c84b63,
        type: 3}
    - time: 0.16666667
      value: {fileID: -8069763108865935579, guid: 7a33500a4ca86ab4093d8014c0c84b63,
        type: 3}
    - time: 0.25
      value: {fileID: -3305647838936043430, guid: 7a33500a4ca86ab4093d8014c0c84b63,
        type: 3}
    - time: 0.33333334
      value: {fileID: -4821448970375181654, guid: 7a33500a4ca86ab4093d8014c0c84b63,
        type: 3}
    - time: 0.41666666
      value: {fileID: 3534936887532953269, guid: 7a33500a4ca86ab4093d8014c0c84b63,
        type: 3}
    - time: 0.5
      value: {fileID: 8225259503657797120, guid: 7a33500a4ca86ab4093d8014c0c84b63,
        type: 3}
    - time: 0.5833333
      value: {fileID: -4588052170410471388, guid: 7a33500a4ca86ab4093d8014c0c84b63,
        type: 3}
    - time: 0.6666667
      value: {fileID: 8580978298268694925, guid: 7a33500a4ca86ab4093d8014c0c84b63,
        type: 3}
    - time: 0.75
      value: {fileID: -3879362354589836620, guid: 7a33500a4ca86ab4093d8014c0c84b63,
        type: 3}
    - time: 0.8333333
      value: {fileID: 6360859679298467282, guid: 7a33500a4ca86ab4093d8014c0c84b63,
        type: 3}
    - time: 0.9166667
      value: {fileID: -7021332379265890575, guid: 7a33500a4ca86ab4093d8014c0c84b63,
        type: 3}
    - time: 1
      value: {fileID: 838832255940599324, guid: 7a33500a4ca86ab4093d8014c0c84b63,
        type: 3}
    attribute: m_Sprite
    path: 
    classID: 212
    script: {fileID: 0}
  m_SampleRate: 12
  m_WrapMode: 0
  m_Bounds:
    m_Center: {x: 0, y: 0, z: 0}
    m_Extent: {x: 0, y: 0, z: 0}
  m_ClipBindingConstant:
    genericBindings:
    - serializedVersion: 2
      path: 0
      attribute: 0
      script: {fileID: 0}
      typeID: 212
      customType: 23
      isPPtrCurve: 1
    pptrCurveMapping:
    - {fileID: 3405330304589781799, guid: 7a33500a4ca86ab4093d8014c0c84b63, type: 3}
    - {fileID: -5065931624321574923, guid: 7a33500a4ca86ab4093d8014c0c84b63, type: 3}
    - {fileID: -8069763108865935579, guid: 7a33500a4ca86ab4093d8014c0c84b63, type: 3}
    - {fileID: -3305647838936043430, guid: 7a33500a4ca86ab4093d8014c0c84b63, type: 3}
    - {fileID: -4821448970375181654, guid: 7a33500a4ca86ab4093d8014c0c84b63, type: 3}
    - {fileID: 3534936887532953269, guid: 7a33500a4ca86ab4093d8014c0c84b63, type: 3}
    - {fileID: 8225259503657797120, guid: 7a33500a4ca86ab4093d8014c0c84b63, type: 3}
    - {fileID: -4588052170410471388, guid: 7a33500a4ca86ab4093d8014c0c84b63, type: 3}
    - {fileID: 8580978298268694925, guid: 7a33500a4ca86ab4093d8014c0c84b63, type: 3}
    - {fileID: -3879362354589836620, guid: 7a33500a4ca86ab4093d8014c0c84b63, type: 3}
    - {fileID: 6360859679298467282, guid: 7a33500a4ca86ab4093d8014c0c84b63, type: 3}
    - {fileID: -7021332379265890575, guid: 7a33500a4ca86ab4093d8014c0c84b63, type: 3}
    - {fileID: 838832255940599324, guid: 7a33500a4ca86ab4093d8014c0c84b63, type: 3}
  m_AnimationClipSettings:
    serializedVersion: 2
    m_AdditiveReferencePoseClip: {fileID: 0}
    m_AdditiveReferencePoseTime: 0
    m_StartTime: 0
    m_StopTime: 1.0833334
    m_OrientationOffsetY: 0
    m_Level: 0
    m_CycleOffset: 0
    m_HasAdditiveReferencePose: 0
    m_LoopTime: 1
    m_LoopBlend: 0
    m_LoopBlendOrientation: 0
    m_LoopBlendPositionY: 0
    m_LoopBlendPositionXZ: 0
    m_KeepOriginalOrientation: 0
    m_KeepOriginalPositionY: 1
    m_KeepOriginalPositionXZ: 0
    m_HeightFromFeet: 0
    m_Mirror: 0
  m_EditorCurves: []
  m_EulerEditorCurves: []
  m_HasGenericRootTransform: 0
  m_HasMotionFloatCurves: 0
  m_Events: []
